{
  "urn" : "local:rain80818:aries.mendia.historic:aries_mendia_climpy.climpy_tmin_2005_1_4326_filled",
  "version" : "0.0.1",
  "adapterType" : "wcs",
  "localPath" : "aries.mendia.historic/resources/aries_mendia_climpy.climpy_tmin_2005_1_4326_filled",
  "geometry" : "τ1{tend=1107216000000,tstart=1104537600000,ttype=logical}S2(552,213){bbox=[-3.2438138926723608 3.49058610732764 41.62235822257166 43.53722822257167],proj=EPSG:4326}",
  "projectName" : "aries.mendia.historic",
  "localName" : "aries_mendia_climpy.climpy_tmin_2005_1_4326_filled",
  "type" : "NUMBER",
  "resourceTimestamp" : 1667172451574,
  "metadata" : {
    "im:keywords" : "",
    "dc:comment" : "",
    "im:notes" : "",
    "dc:title" : "",
    "dc:url" : "",
    "dc:creator" : "",
    "im:thematic-area" : "",
    "dc:originator" : "",
    "im:geographic-area" : "",
    "dc:source" : ""
  },
  "parameters" : {
    "wcsIdentifier" : "aries_mendia_climpy__climpy_tmin_2005_1_4326_filled",
    "transform" : "",
    "serviceUrl" : "http://192.168.250.122:8600/geoserver/ows",
    "wcsVersion" : "2.0.1"
  },
  "localPaths" : [ ],
  "history" : [ ],
  "notifications" : [ ],
  "attributes" : [ ],
  "spatialExtent" : {
    "east" : 3.49058610732764,
    "west" : -3.2438138926723608,
    "north" : 43.53722822257167,
    "south" : 41.62235822257166,
    "gridResolution" : null,
    "gridUnit" : null
  },
  "dependencies" : null,
  "outputs" : null,
  "categorizables" : [ ],
  "codelists" : [ ],
  "availability" : null,
  "exportFormats" : { }
}