{
  "urn" : "local:rain80818:aries.mendia.historic:aries_mendia_climpy.climpy_rain_amount_corrected_2008_11_30",
  "version" : "0.0.1",
  "adapterType" : "wcs",
  "localPath" : "aries.mendia.historic/resources/aries_mendia_climpy.climpy_rain_amount_corrected_2008_11_30",
  "geometry" : "τ1{tend=1228089600000,tstart=1225497600000,ttype=logical}S2(552,213){bbox=[-3.2499138926723607 3.49668610732764 41.617863222571664 43.54172322257167],proj=EPSG:4326}",
  "projectName" : "aries.mendia.historic",
  "localName" : "aries_mendia_climpy.climpy_rain_amount_corrected_2008_11_30",
  "type" : "NUMBER",
  "resourceTimestamp" : 1651679233737,
  "metadata" : {
    "im:keywords" : "",
    "dc:comment" : "",
    "im:notes" : "",
    "dc:title" : "",
    "dc:url" : "",
    "dc:creator" : "",
    "im:thematic-area" : "",
    "dc:originator" : "",
    "im:geographic-area" : "",
    "dc:source" : ""
  },
  "parameters" : {
    "wcsIdentifier" : "aries_mendia_climpy__climpy_rain_amount_corrected_2008_11_30",
    "transform" : "",
    "serviceUrl" : "http://192.168.250.122:8600/geoserver/ows",
    "nodata" : "-999.0",
    "wcsVersion" : "2.0.1"
  },
  "localPaths" : [ ],
  "history" : [ ],
  "notifications" : [ ],
  "attributes" : [ ],
  "spatialExtent" : {
    "east" : 3.49668610732764,
    "west" : -3.2499138926723607,
    "north" : 43.54172322257167,
    "south" : 41.617863222571664,
    "gridResolution" : null,
    "gridUnit" : null
  },
  "dependencies" : null,
  "outputs" : null,
  "categorizables" : [ ],
  "codelists" : [ ],
  "availability" : null,
  "exportFormats" : { }
}