{
  "urn" : "local:rain80818:aries.mendia.historic:aries_mendia_climpy.ndvi_pyrenees_mod13a3_a20090501",
  "version" : "0.0.1",
  "adapterType" : "wcs",
  "localPath" : "aries.mendia.historic/resources/aries_mendia_climpy.ndvi_pyrenees_mod13a3_a20090501",
  "geometry" : "τ1{tend=1243814400000,tstart=1241136000000,ttype=logical}S2(2855,917){bbox=[-15.557274037562276 15.566583954650941 39.995959140653866 50.00005635243669],proj=EPSG:4326}",
  "projectName" : "aries.mendia.historic",
  "localName" : "aries_mendia_climpy.ndvi_pyrenees_mod13a3_a20090501",
  "type" : "NUMBER",
  "resourceTimestamp" : 1663589849974,
  "metadata" : {
    "im:keywords" : "",
    "dc:comment" : "",
    "im:notes" : "",
    "dc:title" : "",
    "dc:url" : "",
    "dc:creator" : "",
    "im:thematic-area" : "",
    "dc:originator" : "",
    "im:geographic-area" : "",
    "dc:source" : ""
  },
  "parameters" : {
    "wcsIdentifier" : "aries_mendia_climpy__ndvi_pyrenees_mod13a3_a20090501",
    "transform" : "self*0.0001",
    "serviceUrl" : "http://192.168.250.122:8600/geoserver/ows",
    "nodata" : "-3000.0",
    "wcsVersion" : "2.0.1"
  },
  "localPaths" : [ ],
  "history" : [ ],
  "notifications" : [ ],
  "attributes" : [ ],
  "spatialExtent" : {
    "east" : 15.566583954650941,
    "west" : -15.557274037562276,
    "north" : 50.00005635243669,
    "south" : 39.995959140653866,
    "gridResolution" : null,
    "gridUnit" : null
  },
  "dependencies" : null,
  "outputs" : null,
  "categorizables" : [ ],
  "codelists" : [ ],
  "availability" : null,
  "exportFormats" : { }
}